[
  {
    "name": "dep1",
    "version": ""
  },
  {
    "name": "dep2",
    "version": ""
  },
  {
    "name": "Serilog",
    "version": "2.10.0"
  },
  {
    "name": "Grpc.Core",
    "version": "2.44.0"
  },
  {
    "name": "Grpc.Core.Api",
    "version": "2.44.0"
  },
  {
    "name": "Microsoft.Extensions.DependencyInjection.Abstractions",
    "version": "5.0.0"
  },
  {
    "name": "System.Memory",
    "version": "4.5.3"
  }
]
