[
  {
    "name": "org.apache.geode/geode-core",
    "version": "1.1.1"
  },
  {
    "name": "org.apache.geode/geode-json",
    "version": "1.1.1"
  },
  {
    "name": "org.apache.geode/geode-common",
    "version": "1.1.1"
  },
  {
    "name": "org.apache.shiro/shiro-core",
    "version": "1.3.1"
  },
  {
    "name": "commons-beanutils/commons-beanutils",
    "version": "1.8.3"
  }
]
