{
  "bomFormat": "CycloneDX",
  "specVersion": "1.4",
  "serialNumber": "urn:uuid:094cd454-b892-4c69-b68c-902189662c76",
  "version": 1,
  "metadata": {
    "timestamp": "2022-03-04T01:50:26Z",
    "tools": [
      {
        "vendor": "GitLab",
        "name": "Gemnasium",
        "version": "not-configured"
      }
    ],
    "authors": [
      {
        "name": "GitLab",
        "email": "support@gitlab.com"
      }
    ],
    "properties": [
      {
        "name": "gitlab:input_file",
        "value": "Pipfile"
      },
      {
        "name": "gitlab:package_manager",
        "value": "pipenv"
      }
    ]
  },
  "components": [
    {
      "name": "Django",
      "version": "1.11.3",
      "purl": "pkg:pypi/Django@1.11.3",
      "type": "library",
      "bom-ref": "pkg:pypi/Django@1.11.3"
    },
    {
      "name": "docutils",
      "version": "0.13.1",
      "purl": "pkg:pypi/docutils@0.13.1",
      "type": "library",
      "bom-ref": "pkg:pypi/docutils@0.13.1"
    },
    {
      "name": "pytz",
      "version": "2020.1",
      "purl": "pkg:pypi/pytz@2020.1",
      "type": "library",
      "bom-ref": "pkg:pypi/pytz@2020.1"
    },
    {
      "name": "requests",
      "version": "2.5.3",
      "purl": "pkg:pypi/requests@2.5.3",
      "type": "library",
      "bom-ref": "pkg:pypi/requests@2.5.3"
    }
  ]
}
